simulation2/transcript
# Compile of ALU.v was successful.
# Compile of CPU.v was successful.
# Compile of Ctrl.v was successful.
# Compile of DataMem.v was successful.
# Compile of InstFetch.v was successful.
# Compile of InstROM.v was successful.
# Compile of RegFile.v was successful.
# Compile of test_bench_2.v was successful.
# 8 compiles, 0 failed with no errors.
vsim work.test_bench_2
# vsim work.test_bench_2 
# Start time: 18:08:18 on Dec 06,2020
# Loading work.test_bench_2
# Loading work.CPU
# Loading work.InstFetch
# Loading work.InstROM
# Loading work.Ctrl
# Loading work.RegFile
# Loading work.ALU
# Loading work.DataMem
vsim work.test_bench_2
# End time: 18:11:32 on Dec 06,2020, Elapsed time: 0:03:14
# Errors: 0, Warnings: 5
# vsim work.test_bench_2 
# Start time: 18:11:32 on Dec 06,2020
# Loading work.test_bench_2
# Loading work.CPU
# Loading work.InstFetch
# Loading work.InstROM
# Loading work.Ctrl
# Loading work.RegFile
# Loading work.ALU
# Loading work.DataMem
run -all
# dividend = 3caf000000000000, div_in2 = 3caf, divisor2 = 80, quotient = 00795e0000000000, result2 = 00795e, equiv to  121.36719
# success -- match2
# dividend = 3caf000000000000, div_in2 = 3caf, divisor2 = 81, quotient = 00786d25b496d25b, result2 = 00786d, equiv to  120.42636
# success -- match2
# dividend = 3caf000000000000, div_in2 = 3caf, divisor2 = 82, quotient = 0077800000000000, result2 = 007780, equiv to  119.50000
# success -- match2
# dividend = 3caf000000000000, div_in2 = 3caf, divisor2 = 83, quotient = 007696792909c55f, result2 = 007696, equiv to  118.58779
# success -- match2
# dividend = 3caf000000000000, div_in2 = 3caf, divisor2 = 84, quotient = 0075b07c1f07c1f0, result2 = 0075b0, equiv to  117.68939
# success -- match2
# dividend = 3caf000000000000, div_in2 = 3caf, divisor2 = 85, quotient = 0074cdf4737d1cdf, result2 = 0074cd, equiv to  116.80451
# success -- match2
# dividend = 3caf000000000000, div_in2 = 3caf, divisor2 = 86, quotient = 0073eece540f4898, result2 = 0073ee, equiv to  115.93284
# success -- match2
# dividend = 3caf000000000000, div_in2 = 3caf, divisor2 = 87, quotient = 007312f684bda12f, result2 = 007312, equiv to  115.07407
# success -- match2
# dividend = 3caf000000000000, div_in2 = 3caf, divisor2 = 88, quotient = 00723a5a5a5a5a5a, result2 = 00723a, equiv to  114.22794
# success -- match2
# dividend = 3caf000000000000, div_in2 = 3caf, divisor2 = 89, quotient = 007164e7b54166c6, result2 = 007164, equiv to  113.39416
# success -- match2
# dividend = 3caf000000000000, div_in2 = 3caf, divisor2 = 8a, quotient = 0070928cfc4a33f1, result2 = 007092, equiv to  112.57246
# success -- match2
# dividend = 3caf000000000000, div_in2 = 3caf, divisor2 = 8b, quotient = 006fc33917f14424, result2 = 006fc3, equiv to  111.76259
# success -- match2
# dividend = 3caf000000000000, div_in2 = 3caf, divisor2 = 8c, quotient = 006ef6db6db6db6d, result2 = 006ef6, equiv to  110.96429
# success -- match2
# dividend = 3caf000000000000, div_in2 = 3caf, divisor2 = 8d, quotient = 006e2d63dbb01d0c, result2 = 006e2d, equiv to  110.17730
# success -- match2
# dividend = 3caf000000000000, div_in2 = 3caf, divisor2 = 8e, quotient = 006d66c2b4481cd8, result2 = 006d66, equiv to  109.40141
# success -- match2
# dividend = 3caf000000000000, div_in2 = 3caf, divisor2 = 8f, quotient = 006ca2e8ba2e8ba2, result2 = 006ca2, equiv to  108.63636
# success -- match2
# dividend = 3caf000000000000, div_in2 = 3caf, divisor2 = 90, quotient = 006be1c71c71c71c, result2 = 006be1, equiv to  107.88194
# success -- match2
# dividend = 3caf000000000000, div_in2 = 3caf, divisor2 = 91, quotient = 006b234f72c234f7, result2 = 006b23, equiv to  107.13793
# success -- match2
# dividend = 3caf000000000000, div_in2 = 3caf, divisor2 = 92, quotient = 006a6773b9dcee77, result2 = 006a67, equiv to  106.40411
# success -- match2
# dividend = 3caf000000000000, div_in2 = 3caf, divisor2 = 93, quotient = 0069ae26501bdd2b, result2 = 0069ae, equiv to  105.68027
# success -- match2
# dividend = 3caf000000000000, div_in2 = 3caf, divisor2 = 94, quotient = 0068f759f2298375, result2 = 0068f7, equiv to  104.96622
# success -- match2
# dividend = 3caf000000000000, div_in2 = 3caf, divisor2 = 95, quotient = 00684301b7d6c3dd, result2 = 006843, equiv to  104.26174
# success -- match2
# dividend = 3caf000000000000, div_in2 = 3caf, divisor2 = 96, quotient = 0067911111111111, result2 = 006791, equiv to  103.56667
# success -- match2
# dividend = 3caf000000000000, div_in2 = 3caf, divisor2 = 97, quotient = 0066e17bc2f785ef, result2 = 0066e1, equiv to  102.88079
# success -- match2
# dividend = 3caf000000000000, div_in2 = 3caf, divisor2 = 98, quotient = 00663435e50d7943, result2 = 006634, equiv to  102.20395
# success -- match2
# dividend = 3caf000000000000, div_in2 = 3caf, divisor2 = 99, quotient = 00658933de8933de, result2 = 006589, equiv to  101.53595
# success -- match2
# dividend = 3caf000000000000, div_in2 = 3caf, divisor2 = 9a, quotient = 0064e06a63bd81a9, result2 = 0064e0, equiv to  100.87662
# success -- match2
# dividend = 3caf000000000000, div_in2 = 3caf, divisor2 = 9b, quotient = 006439ce739ce739, result2 = 006439, equiv to  100.22581
# success -- match2
# dividend = 3caf000000000000, div_in2 = 3caf, divisor2 = 9c, quotient = 0063955555555555, result2 = 006395, equiv to   99.58333
# success -- match2
# dividend = 3caf000000000000, div_in2 = 3caf, divisor2 = 9d, quotient = 0062f2f4960342da, result2 = 0062f2, equiv to   98.94904
# success -- match2
# dividend = 3caf000000000000, div_in2 = 3caf, divisor2 = 9e, quotient = 006252a2067b23a5, result2 = 006252, equiv to   98.32278
# success -- match2
# dividend = 3caf000000000000, div_in2 = 3caf, divisor2 = 9f, quotient = 0061b453b9284067, result2 = 0061b4, equiv to   97.70440
# success -- match2
# dividend = 3caf000000000000, div_in2 = 3caf, divisor2 = a0, quotient = 0061180000000000, result2 = 006118, equiv to   97.09375
# success -- match2
# dividend = 3caf000000000000, div_in2 = 3caf, divisor2 = a1, quotient = 00607d9d6a88bece, result2 = 00607d, equiv to   96.49068
# success -- match2
# dividend = 3caf000000000000, div_in2 = 3caf, divisor2 = a2, quotient = 005fe522c3f35ba7, result2 = 005fe5, equiv to   95.89506
# success -- match2
# dividend = 3caf000000000000, div_in2 = 3caf, divisor2 = a3, quotient = 005f4e871146acc2, result2 = 005f4e, equiv to   95.30675
# success -- match2
# dividend = 3caf000000000000, div_in2 = 3caf, divisor2 = a4, quotient = 005eb9c18f9c18f9, result2 = 005eb9, equiv to   94.72561
# success -- match2
# dividend = 3caf000000000000, div_in2 = 3caf, divisor2 = a5, quotient = 005e26c9b26c9b26, result2 = 005e26, equiv to   94.15152
# success -- match2
# dividend = 3caf000000000000, div_in2 = 3caf, divisor2 = a6, quotient = 005d959721ed7e75, result2 = 005d95, equiv to   93.58434
# success -- match2
# dividend = 3caf000000000000, div_in2 = 3caf, divisor2 = a7, quotient = 005d0621b97c2aec, result2 = 005d06, equiv to   93.02395
# success -- match2
# dividend = 3caf000000000000, div_in2 = 3caf, divisor2 = a8, quotient = 005c786186186186, result2 = 005c78, equiv to   92.47024
# success -- match2
# dividend = 3caf000000000000, div_in2 = 3caf, divisor2 = a9, quotient = 005bec4ec4ec4ec4, result2 = 005bec, equiv to   91.92308
# success -- match2
# dividend = 3caf000000000000, div_in2 = 3caf, divisor2 = aa, quotient = 005b61e1e1e1e1e1, result2 = 005b61, equiv to   91.38235
# success -- match2
# dividend = 3caf000000000000, div_in2 = 3caf, divisor2 = ab, quotient = 005ad9137644dd91, result2 = 005ad9, equiv to   90.84795
# success -- match2
# dividend = 3caf000000000000, div_in2 = 3caf, divisor2 = ac, quotient = 005a51dc47711dc4, result2 = 005a51, equiv to   90.31977
# success -- match2
# dividend = 3caf000000000000, div_in2 = 3caf, divisor2 = ad, quotient = 0059cc35458c93fa, result2 = 0059cc, equiv to   89.79769
# success -- match2
# dividend = 3caf000000000000, div_in2 = 3caf, divisor2 = ae, quotient = 005948178a4c8178, result2 = 005948, equiv to   89.28161
# success -- match2
# dividend = 3caf000000000000, div_in2 = 3caf, divisor2 = af, quotient = 0058c57c57c57c57, result2 = 0058c5, equiv to   88.77143
# success -- match2
# dividend = 3caf000000000000, div_in2 = 3caf, divisor2 = b0, quotient = 0058445d1745d174, result2 = 005844, equiv to   88.26705
# success -- match2
# dividend = 3caf000000000000, div_in2 = 3caf, divisor2 = b1, quotient = 0057c4b35839da65, result2 = 0057c4, equiv to   87.76836
# success -- match2
# dividend = 3caf000000000000, div_in2 = 3caf, divisor2 = b2, quotient = 00574678cf19e33c, result2 = 005746, equiv to   87.27528
# success -- match2
# dividend = 3caf000000000000, div_in2 = 3caf, divisor2 = b3, quotient = 0056c9a75461405b, result2 = 0056c9, equiv to   86.78771
# success -- match2
# dividend = 3caf000000000000, div_in2 = 3caf, divisor2 = b4, quotient = 00564e38e38e38e3, result2 = 00564e, equiv to   86.30556
# success -- match2
# dividend = 3caf000000000000, div_in2 = 3caf, divisor2 = b5, quotient = 0055d4279a2a6e52, result2 = 0055d4, equiv to   85.82873
# success -- match2
# dividend = 3caf000000000000, div_in2 = 3caf, divisor2 = b6, quotient = 00555b6db6db6db6, result2 = 00555b, equiv to   85.35714
# success -- match2
# dividend = 3caf000000000000, div_in2 = 3caf, divisor2 = b7, quotient = 0054e405987b1a94, result2 = 0054e4, equiv to   84.89071
# success -- match2
# dividend = 3caf000000000000, div_in2 = 3caf, divisor2 = b8, quotient = 00546de9bd37a6f4, result2 = 00546d, equiv to   84.42935
# success -- match2
# dividend = 3caf000000000000, div_in2 = 3caf, divisor2 = b9, quotient = 0053f914c1bacf91, result2 = 0053f9, equiv to   83.97297
# success -- match2
# dividend = 3caf000000000000, div_in2 = 3caf, divisor2 = ba, quotient = 0053858160581605, result2 = 005385, equiv to   83.52151
# success -- match2
# dividend = 3caf000000000000, div_in2 = 3caf, divisor2 = bb, quotient = 0053132a7041b613, result2 = 005313, equiv to   83.07487
# success -- match2
# dividend = 3caf000000000000, div_in2 = 3caf, divisor2 = bc, quotient = 0052a20ae4c415c9, result2 = 0052a2, equiv to   82.63298
# success -- match2
# dividend = 3caf000000000000, div_in2 = 3caf, divisor2 = bd, quotient = 0052321dcc877321, result2 = 005232, equiv to   82.19577
# success -- match2
# dividend = 3caf000000000000, div_in2 = 3caf, divisor2 = be, quotient = 0051c35e50d79435, result2 = 0051c3, equiv to   81.76316
# success -- match2
# dividend = 3caf000000000000, div_in2 = 3caf, divisor2 = bf, quotient = 005155c7b4f141ac, result2 = 005155, equiv to   81.33508
# success -- match2
# dividend = 3caf000000000000, div_in2 = 3caf, divisor2 = c0, quotient = 0050e95555555555, result2 = 0050e9, equiv to   80.91146
# success -- match2
# dividend = 3caf000000000000, div_in2 = 3caf, divisor2 = c1, quotient = 00507e02a721291e, result2 = 00507e, equiv to   80.49223
# success -- match2
# dividend = 3caf000000000000, div_in2 = 3caf, divisor2 = c2, quotient = 005013cb376c34c8, result2 = 005013, equiv to   80.07732
# success -- match2
# dividend = 3caf000000000000, div_in2 = 3caf, divisor2 = c3, quotient = 004faaaaaaaaaaaa, result2 = 004faa, equiv to   79.66667
# success -- match2
# dividend = 3caf000000000000, div_in2 = 3caf, divisor2 = c4, quotient = 004f429cbc14e5e0, result2 = 004f42, equiv to   79.26020
# success -- match2
# dividend = 3caf000000000000, div_in2 = 3caf, divisor2 = c5, quotient = 004edb9d3d137e0c, result2 = 004edb, equiv to   78.85787
# success -- match2
# dividend = 3caf000000000000, div_in2 = 3caf, divisor2 = c6, quotient = 004e75a814afd6a0, result2 = 004e75, equiv to   78.45960
# success -- match2
# dividend = 3caf000000000000, div_in2 = 3caf, divisor2 = c7, quotient = 004e10b93f090149, result2 = 004e10, equiv to   78.06533
# success -- match2
# dividend = 3caf000000000000, div_in2 = 3caf, divisor2 = c8, quotient = 004daccccccccccc, result2 = 004dac, equiv to   77.67500
# success -- match2
# dividend = 3caf000000000000, div_in2 = 3caf, divisor2 = c9, quotient = 004d49dee2b4db10, result2 = 004d49, equiv to   77.28856
# success -- match2
# dividend = 3caf000000000000, div_in2 = 3caf, divisor2 = ca, quotient = 004ce7ebb9079a9d, result2 = 004ce7, equiv to   76.90594
# success -- match2
# dividend = 3caf000000000000, div_in2 = 3caf, divisor2 = cb, quotient = 004c86ef9b1d0142, result2 = 004c86, equiv to   76.52709
# success -- match2
# dividend = 3caf000000000000, div_in2 = 3caf, divisor2 = cc, quotient = 004c26e6e6e6e6e6, result2 = 004c26, equiv to   76.15196
# success -- match2
# dividend = 3caf000000000000, div_in2 = 3caf, divisor2 = cd, quotient = 004bc7ce0c7ce0c7, result2 = 004bc7, equiv to   75.78049
# success -- match2
# dividend = 3caf000000000000, div_in2 = 3caf, divisor2 = ce, quotient = 004b69a18dab7ec1, result2 = 004b69, equiv to   75.41262
# success -- match2
# dividend = 3caf000000000000, div_in2 = 3caf, divisor2 = cf, quotient = 004b0c5dfd86cd4b, result2 = 004b0c, equiv to   75.04831
# success -- match2
# dividend = 3caf000000000000, div_in2 = 3caf, divisor2 = d0, quotient = 004ab00000000000, result2 = 004ab0, equiv to   74.68750
# success -- match2
# dividend = 3caf000000000000, div_in2 = 3caf, divisor2 = d1, quotient = 004a5484497e29a5, result2 = 004a54, equiv to   74.33014
# success -- match2
# dividend = 3caf000000000000, div_in2 = 3caf, divisor2 = d2, quotient = 0049f9e79e79e79e, result2 = 0049f9, equiv to   73.97619
# success -- match2
# dividend = 3caf000000000000, div_in2 = 3caf, divisor2 = d3, quotient = 0049a026d31be7bc, result2 = 0049a0, equiv to   73.62559
# success -- match2
# dividend = 3caf000000000000, div_in2 = 3caf, divisor2 = d4, quotient = 0049473ecade304d, result2 = 004947, equiv to   73.27830
# success -- match2
# dividend = 3caf000000000000, div_in2 = 3caf, divisor2 = d5, quotient = 0048ef2c7830133a, result2 = 0048ef, equiv to   72.93427
# success -- match2
# dividend = 3caf000000000000, div_in2 = 3caf, divisor2 = d6, quotient = 004897ecdc1cb5d4, result2 = 004897, equiv to   72.59346
# success -- match2
# dividend = 3caf000000000000, div_in2 = 3caf, divisor2 = d7, quotient = 0048417d05f417d0, result2 = 004841, equiv to   72.25581
# success -- match2
# dividend = 3caf000000000000, div_in2 = 3caf, divisor2 = d8, quotient = 0047ebda12f684bd, result2 = 0047eb, equiv to   71.92130
# success -- match2
# dividend = 3caf000000000000, div_in2 = 3caf, divisor2 = d9, quotient = 004797012e025c04, result2 = 004797, equiv to   71.58986
# success -- match2
# dividend = 3caf000000000000, div_in2 = 3caf, divisor2 = da, quotient = 004742ef8f441c2e, result2 = 004742, equiv to   71.26147
# success -- match2
# dividend = 3caf000000000000, div_in2 = 3caf, divisor2 = db, quotient = 0046efa27be89efa, result2 = 0046ef, equiv to   70.93607
# success -- match2
# dividend = 3caf000000000000, div_in2 = 3caf, divisor2 = dc, quotient = 00469d1745d1745d, result2 = 00469d, equiv to   70.61364
# success -- match2
# dividend = 3caf000000000000, div_in2 = 3caf, divisor2 = dd, quotient = 00464b4b4b4b4b4b, result2 = 00464b, equiv to   70.29412
# success -- match2
# dividend = 3caf000000000000, div_in2 = 3caf, divisor2 = de, quotient = 0045fa3bf6c657a3, result2 = 0045fa, equiv to   69.97748
# success -- match2
# dividend = 3caf000000000000, div_in2 = 3caf, divisor2 = df, quotient = 0045a9e6be90a54f, result2 = 0045a9, equiv to   69.66368
# success -- match2
# dividend = 3caf000000000000, div_in2 = 3caf, divisor2 = e0, quotient = 00455a4924924924, result2 = 00455a, equiv to   69.35268
# success -- match2
# dividend = 3caf000000000000, div_in2 = 3caf, divisor2 = e1, quotient = 00450b60b60b60b6, result2 = 00450b, equiv to   69.04444
# success -- match2
# dividend = 3caf000000000000, div_in2 = 3caf, divisor2 = e2, quotient = 0044bd2b0b53d2b0, result2 = 0044bd, equiv to   68.73894
# success -- match2
# dividend = 3caf000000000000, div_in2 = 3caf, divisor2 = e3, quotient = 00446fa5c79cc1f9, result2 = 00446f, equiv to   68.43612
# success -- match2
# dividend = 3caf000000000000, div_in2 = 3caf, divisor2 = e4, quotient = 004422ce98b3a62c, result2 = 004422, equiv to   68.13596
# success -- match2
# dividend = 3caf000000000000, div_in2 = 3caf, divisor2 = e5, quotient = 0043d6a336c6fca5, result2 = 0043d6, equiv to   67.83843
# success -- match2
# dividend = 3caf000000000000, div_in2 = 3caf, divisor2 = e6, quotient = 00438b21642c8590, result2 = 00438b, equiv to   67.54348
# success -- match2
# dividend = 3caf000000000000, div_in2 = 3caf, divisor2 = e7, quotient = 00434046ed29011b, result2 = 004340, equiv to   67.25108
# success -- match2
# dividend = 3caf000000000000, div_in2 = 3caf, divisor2 = e8, quotient = 0042f611a7b9611a, result2 = 0042f6, equiv to   66.96121
# success -- match2
# dividend = 3caf000000000000, div_in2 = 3caf, divisor2 = e9, quotient = 0042ac7f735d63fb, result2 = 0042ac, equiv to   66.67382
# success -- match2
# dividend = 3caf000000000000, div_in2 = 3caf, divisor2 = ea, quotient = 0042638e38e38e38, result2 = 004263, equiv to   66.38889
# success -- match2
# dividend = 3caf000000000000, div_in2 = 3caf, divisor2 = eb, quotient = 00421b3bea3677d4, result2 = 00421b, equiv to   66.10638
# success -- match2
# dividend = 3caf000000000000, div_in2 = 3caf, divisor2 = ec, quotient = 0041d386822b63cb, result2 = 0041d3, equiv to   65.82627
# success -- match2
# dividend = 3caf000000000000, div_in2 = 3caf, divisor2 = ed, quotient = 00418c6c045217c3, result2 = 00418c, equiv to   65.54852
# success -- match2
# dividend = 3caf000000000000, div_in2 = 3caf, divisor2 = ee, quotient = 004145ea7cc5ea7c, result2 = 004145, equiv to   65.27311
# success -- match2
# dividend = 3caf000000000000, div_in2 = 3caf, divisor2 = ef, quotient = 0041000000000000, result2 = 004100, equiv to   65.00000
# success -- match2
# dividend = 3caf000000000000, div_in2 = 3caf, divisor2 = f0, quotient = 0040baaaaaaaaaaa, result2 = 0040ba, equiv to   64.72917
# success -- match2
# dividend = 3caf000000000000, div_in2 = 3caf, divisor2 = f1, quotient = 004075e8a175e8a1, result2 = 004075, equiv to   64.46058
# success -- match2
# dividend = 3caf000000000000, div_in2 = 3caf, divisor2 = f2, quotient = 004031b810ecf56b, result2 = 004031, equiv to   64.19421
# success -- match2
# dividend = 3caf000000000000, div_in2 = 3caf, divisor2 = f3, quotient = 003fee172d4ce7c5, result2 = 003fee, equiv to   63.93004
# success -- match2
# dividend = 3caf000000000000, div_in2 = 3caf, divisor2 = f4, quotient = 003fab04325c53ef, result2 = 003fab, equiv to   63.66803
# success -- match2
# dividend = 3caf000000000000, div_in2 = 3caf, divisor2 = f5, quotient = 003f687d6343eb1a, result2 = 003f68, equiv to   63.40816
# success -- match2
# dividend = 3caf000000000000, div_in2 = 3caf, divisor2 = f6, quotient = 003f26810a6810a6, result2 = 003f26, equiv to   63.15041
# success -- match2
# dividend = 3caf000000000000, div_in2 = 3caf, divisor2 = f7, quotient = 003ee50d79435e50, result2 = 003ee5, equiv to   62.89474
# success -- match2
# dividend = 3caf000000000000, div_in2 = 3caf, divisor2 = f8, quotient = 003ea42108421084, result2 = 003ea4, equiv to   62.64113
# success -- match2
# dividend = 3caf000000000000, div_in2 = 3caf, divisor2 = f9, quotient = 003e63ba169e544e, result2 = 003e63, equiv to   62.38956
# success -- match2
# dividend = 3caf000000000000, div_in2 = 3caf, divisor2 = fa, quotient = 003e23d70a3d70a3, result2 = 003e23, equiv to   62.14000
# success -- match2
# dividend = 3caf000000000000, div_in2 = 3caf, divisor2 = fb, quotient = 003de4764f8dc4d8, result2 = 003de4, equiv to   61.89243
# success -- match2
# dividend = 3caf000000000000, div_in2 = 3caf, divisor2 = fc, quotient = 003da59659659659, result2 = 003da5, equiv to   61.64683
# success -- match2
# dividend = 3caf000000000000, div_in2 = 3caf, divisor2 = fd, quotient = 003d6735a0e2a7f7, result2 = 003d67, equiv to   61.40316
# success -- match2
# dividend = 3caf000000000000, div_in2 = 3caf, divisor2 = fe, quotient = 003d2952a54a952a, result2 = 003d29, equiv to   61.16142
# success -- match2
# dividend = 3cb9000000000000, div_in2 = 3cb9, divisor2 = 80, quotient = 0079720000000000, result2 = 007972, equiv to  121.44531
# success -- match2
# dividend = 3cb9000000000000, div_in2 = 3cb9, divisor2 = 81, quotient = 007880fe03f80fe0, result2 = 007880, equiv to  120.50388
# success -- match2
# dividend = 3cb9000000000000, div_in2 = 3cb9, divisor2 = 82, quotient = 007793b13b13b13b, result2 = 007793, equiv to  119.57692
# success -- match2
# dividend = 3cb9000000000000, div_in2 = 3cb9, divisor2 = 83, quotient = 0076aa03e88cb3c9, result2 = 0076aa, equiv to  118.66412
# success -- match2
# dividend = 3cb9000000000000, div_in2 = 3cb9, divisor2 = 84, quotient = 0075c3e0f83e0f83, result2 = 0075c3, equiv to  117.76515
# success -- match2
# dividend = 3cb9000000000000, div_in2 = 3cb9, divisor2 = 85, quotient = 0074e133f84cfe13, result2 = 0074e1, equiv to  116.87970
# success -- match2
# dividend = 3cb9000000000000, div_in2 = 3cb9, divisor2 = 86, quotient = 007401e9131abf0b, result2 = 007401, equiv to  116.00746
# success -- match2
# dividend = 3cb9000000000000, div_in2 = 3cb9, divisor2 = 87, quotient = 007325ed097b425e, result2 = 007325, equiv to  115.14815
# success -- match2
# dividend = 3cb9000000000000, div_in2 = 3cb9, divisor2 = 88, quotient = 00724d2d2d2d2d2d, result2 = 00724d, equiv to  114.30147
# success -- match2
# dividend = 3cb9000000000000, div_in2 = 3cb9, divisor2 = 89, quotient = 007177975b8fe21a, result2 = 007177, equiv to  113.46715
# success -- match2
# dividend = 3cb9000000000000, div_in2 = 3cb9, divisor2 = 8a, quotient = 0070a519f89467e2, result2 = 0070a5, equiv to  112.64493
# success -- match2
# dividend = 3cb9000000000000, div_in2 = 3cb9, divisor2 = 8b, quotient = 006fd5a3e9e63740, result2 = 006fd5, equiv to  111.83453
# success -- match2
# dividend = 3cb9000000000000, div_in2 = 3cb9, divisor2 = 8c, quotient = 006f092492492492, result2 = 006f09, equiv to  111.03571
# success -- match2
# dividend = 3cb9000000000000, div_in2 = 3cb9, divisor2 = 8d, quotient = 006e3f8bcd29c244, result2 = 006e3f, equiv to  110.24823
# success -- match2
# dividend = 3cb9000000000000, div_in2 = 3cb9, divisor2 = 8e, quotient = 006d78c9ea5dbf19, result2 = 006d78, equiv to  109.47183
# success -- match2
# dividend = 3cb9000000000000, div_in2 = 3cb9, divisor2 = 8f, quotient = 006cb4cfaa11e6ef, result2 = 006cb4, equiv to  108.70629
# success -- match2
# dividend = 3cb9000000000000, div_in2 = 3cb9, divisor2 = 90, quotient = 006bf38e38e38e38, result2 = 006bf3, equiv to  107.95139
# success -- match2
# dividend = 3cb9000000000000, div_in2 = 3cb9, divisor2 = 91, quotient = 006b34f72c234f72, result2 = 006b34, equiv to  107.20690
# success -- match2
# dividend = 3cb9000000000000, div_in2 = 3cb9, divisor2 = 92, quotient = 006a78fc7e3f1f8f, result2 = 006a78, equiv to  106.47260
# success -- match2
# dividend = 3cb9000000000000, div_in2 = 3cb9, divisor2 = 93, quotient = 0069bf908b51d9af, result2 = 0069bf, equiv to  105.74830
# success -- match2
# dividend = 3cb9000000000000, div_in2 = 3cb9, divisor2 = 94, quotient = 006908a60dd67c8a, result2 = 006908, equiv to  105.03378
# success -- match2
# dividend = 3cb9000000000000, div_in2 = 3cb9, divisor2 = 95, quotient = 006854301b7d6c3d, result2 = 006854, equiv to  104.32886
# success -- match2
# dividend = 3cb9000000000000, div_in2 = 3cb9, divisor2 = 96, quotient = 0067a22222222222, result2 = 0067a2, equiv to  103.63333
# success -- match2
# dividend = 3cb9000000000000, div_in2 = 3cb9, divisor2 = 97, quotient = 0066f26fe4dfc9bf, result2 = 0066f2, equiv to  102.94702
# success -- match2
# dividend = 3cb9000000000000, div_in2 = 3cb9, divisor2 = 98, quotient = 0066450d79435e50, result2 = 006645, equiv to  102.26974
# success -- match2
# dividend = 3cb9000000000000, div_in2 = 3cb9, divisor2 = 99, quotient = 006599ef4499ef44, result2 = 006599, equiv to  101.60131
# success -- match2
# dividend = 3cb9000000000000, div_in2 = 3cb9, divisor2 = 9a, quotient = 0064f109f959c427, result2 = 0064f1, equiv to  100.94156
# success -- match2
# dividend = 3cb9000000000000, div_in2 = 3cb9, divisor2 = 9b, quotient = 00644a5294a5294a, result2 = 00644a, equiv to  100.29032
# success -- match2
# dividend = 3cb9000000000000, div_in2 = 3cb9, divisor2 = 9c, quotient = 0063a5be5be5be5b, result2 = 0063a5, equiv to   99.64744
# success -- match2
# dividend = 3cb9000000000000, div_in2 = 3cb9, divisor2 = 9d, quotient = 00630342da7f2f49, result2 = 006303, equiv to   99.01274
# success -- match2
# dividend = 3cb9000000000000, div_in2 = 3cb9, divisor2 = 9e, quotient = 006262d5df984dc5, result2 = 006262, equiv to   98.38608
# success -- match2
# dividend = 3cb9000000000000, div_in2 = 3cb9, divisor2 = 9f, quotient = 0061c46d7bf98f4b, result2 = 0061c4, equiv to   97.76730
# success -- match2
# dividend = 3cb9000000000000, div_in2 = 3cb9, divisor2 = a0, quotient = 0061280000000000, result2 = 006128, equiv to   97.15625
# success -- match2
# dividend = 3cb9000000000000, div_in2 = 3cb9, divisor2 = a1, quotient = 00608d83f9a3c6c1, result2 = 00608d, equiv to   96.55280
# success -- match2
# dividend = 3cb9000000000000, div_in2 = 3cb9, divisor2 = a2, quotient = 005ff4f0329161f9, result2 = 005ff4, equiv to   95.95679
# success -- match2
# dividend = 3cb9000000000000, div_in2 = 3cb9, divisor2 = a3, quotient = 005f5e3bae54cf50, result2 = 005f5e, equiv to   95.36810
# success -- match2
# dividend = 3cb9000000000000, div_in2 = 3cb9, divisor2 = a4, quotient = 005ec95da895da89, result2 = 005ec9, equiv to   94.78659
# success -- match2
# dividend = 3cb9000000000000, div_in2 = 3cb9, divisor2 = a5, quotient = 005e364d9364d936, result2 = 005e36, equiv to   94.21212
# success -- match2
# dividend = 3cb9000000000000, div_in2 = 3cb9, divisor2 = a6, quotient = 005da503159721ed, result2 = 005da5, equiv to   93.64458
# success -- match2
# dividend = 3cb9000000000000, div_in2 = 3cb9, divisor2 = a7, quotient = 005d15760932963a, result2 = 005d15, equiv to   93.08383
# success -- match2
# dividend = 3cb9000000000000, div_in2 = 3cb9, divisor2 = a8, quotient = 005c879e79e79e79, result2 = 005c87, equiv to   92.52976
# success -- match2
# dividend = 3cb9000000000000, div_in2 = 3cb9, divisor2 = a9, quotient = 005bfb74a398fe7c, result2 = 005bfb, equiv to   91.98225
# success -- match2
# dividend = 3cb9000000000000, div_in2 = 3cb9, divisor2 = aa, quotient = 005b70f0f0f0f0f0, result2 = 005b70, equiv to   91.44118
# success -- match2
# dividend = 3cb9000000000000, div_in2 = 3cb9, divisor2 = ab, quotient = 005ae80bfa02fe80, result2 = 005ae8, equiv to   90.90643
# success -- match2
# dividend = 3cb9000000000000, div_in2 = 3cb9, divisor2 = ac, quotient = 005a60be82fa0be8, result2 = 005a60, equiv to   90.37791
# success -- match2
# dividend = 3cb9000000000000, div_in2 = 3cb9, divisor2 = ad, quotient = 0059db017ad2208e, result2 = 0059db, equiv to   89.85549
# success -- match2
# dividend = 3cb9000000000000, div_in2 = 3cb9, divisor2 = ae, quotient = 005956cdfa1d6cdf, result2 = 005956, equiv to   89.33908
# success -- match2
# dividend = 3cb9000000000000, div_in2 = 3cb9, divisor2 = af, quotient = 0058d41d41d41d41, result2 = 0058d4, equiv to   88.82857
# success -- match2
# dividend = 3cb9000000000000, div_in2 = 3cb9, divisor2 = b0, quotient = 005852e8ba2e8ba2, result2 = 005852, equiv to   88.32386
# success -- match2
# dividend = 3cb9000000000000, div_in2 = 3cb9, divisor2 = b1, quotient = 0057d329f18966b0, result2 = 0057d3, equiv to   87.82486
# success -- match2
# dividend = 3cb9000000000000, div_in2 = 3cb9, divisor2 = b2, quotient = 005754da9b536a6d, result2 = 005754, equiv to   87.33146
# success -- match2
# dividend = 3cb9000000000000, div_in2 = 3cb9, divisor2 = b3, quotient = 0056d7f48f044a5e, result2 = 0056d7, equiv to   86.84358
# success -- match2
# dividend = 3cb9000000000000, div_in2 = 3cb9, divisor2 = b4, quotient = 00565c71c71c71c7, result2 = 00565c, equiv to   86.36111
# success -- match2
# dividend = 3cb9000000000000, div_in2 = 3cb9, divisor2 = b5, quotient = 0055e24c602d4279, result2 = 0055e2, equiv to   85.88398
# success -- match2
# dividend = 3cb9000000000000, div_in2 = 3cb9, divisor2 = b6, quotient = 0055697e97e97e97, result2 = 005569, equiv to   85.41209
# success -- match2
# dividend = 3cb9000000000000, div_in2 = 3cb9, divisor2 = b7, quotient = 0054f202cc3d8d4a, result2 = 0054f2, equiv to   84.94536
# success -- match2
# dividend = 3cb9000000000000, div_in2 = 3cb9, divisor2 = b8, quotient = 00547bd37a6f4de9, result2 = 00547b, equiv to   84.48370
# success -- match2
# dividend = 3cb9000000000000, div_in2 = 3cb9, divisor2 = b9, quotient = 005406eb3e45306e, result2 = 005406, equiv to   84.02703
# success -- match2
# dividend = 3cb9000000000000, div_in2 = 3cb9, divisor2 = ba, quotient = 00539344d1344d13, result2 = 005393, equiv to   83.57527
# success -- match2
# dividend = 3cb9000000000000, div_in2 = 3cb9, divisor2 = bb, quotient = 005320db09953820, result2 = 005320, equiv to   83.12834
# success -- match2
# dividend = 3cb9000000000000, div_in2 = 3cb9, divisor2 = bc, quotient = 0052afa8d9df51b3, result2 = 0052af, equiv to   82.68617
# success -- match2
# dividend = 3cb9000000000000, div_in2 = 3cb9, divisor2 = bd, quotient = 00523fa94fea53fa, result2 = 00523f, equiv to   82.24868
# success -- match2
